2.65	3	4.4	3.15	3.25
3.75	4.5	4.5	3	4
4.1	3.3	4.3	3.6	2.15
4.65	3.2	4.75	3.05	3.65
3.7	2.9	4.05	3.4	3.35
3.45	2.85	4.15	2.8	2.7
3.15	1.9	3.55	4.15	4
3.8	3.6	4.15	3.2	3.1
3.65	3.15	4.5	3.45	2.35
4	5	3.75	4.5	3.25
4.15	3.1	3.35	2.85	2.75
1.5	3.8	3.95	4.15	3.05
3.5	4	3.25	1.75	3.75
1.8	2.9	4.2	2.9	3
4.6	4.65	3.55	3.65	2.3
2.6	2.65	3.5	2.1	2.2
4.5	2.4	3.35	4.1	2.3
1.35	4.75	4.4	2.85	4.55
3.15	3.6	4.25	3.4	2.2
4.55	4.1	2.45	3.05	3.15
4.7	4.3	4.1	3.3	1.78
4.35	3.45	2.65	3.35	2.8
4.3	1.45	4.6	4.4	2.4
2.3	3.5	4.5	4.5	2.85
4.25	3.5	4.5	2.5	2.75
4.35	3.45	2.8	3.65	3.15
2.45	4	4.25	3.8	2.8
2.5	4.25	2.5	3	2
2.9	2.65	4	3.45	3.45
4.4	3.67	4.33	4.17	2
2.55	2.85	4.4	3.9	2.5
2.45	2.7	4.3	3.1	4
5	3.25	4.2	3.95	2.6
1.75	3.6	3.85	3.6	2.1
2	2.65	2.65	3.95	2.8
4	1.65	4.5	3.1	3.1
4.8	3.5	3.4	4.53	1.68
4.75	3	2.75	4	2.5
5	4.25	4	3.5	3.25
3.8	3.95	3.75	3.55	2.05
4	3.95	2.05	4.55	1.55
3.7	2.2	4.4	2.95	3.45
4.35	2.9	3.6	3.45	1.5
4.9	4.4	4.7	3.7	1.55
3.65	3.9	4.55	3.3	2.2
4.8	4.15	2.1	3.9	3
4.2	1.55	4.65	4.95	3.4
4.5	4.75	3.75	4	2.5
3.75	2.75	4.5	3.25	2.75
4.05	3.7	3.7	3.3	2.25
3.7	3.25	3.6	3.15	1.84
2.85	3.75	1.8	2.45	3
1.8	2.25	4.8	2.65	4.75
4.25	3	5	4.5	2.75
4	3.95	3.5	3.75	1.6
3.5	1.5	1.75	2.5	3.75
5	3.17	4	4.83	2.17
1.55	2.45	4.5	3.5	3.4
3.3	4.35	2.7	3.8	1.45
3.9	4	2.95	3.9	3.15
3.7	3.15	3.85	4.3	3.75
3.9	3.65	4.45	3.05	2.5
4.33	3.25	3	4	2.75
2.65	2.75	3.7	4.65	3.1
3.5	4.25	3.25	3.75	3.25
3.57	3.64	2.71	3.14	3.57
4.25	1.55	3.8	4.45	4.35
4.35	3.05	3.4	3.05	2.8
3.8	1.85	4.95	3.35	3
3.8	3.1	2.75	3.85	3.65
4.7	3.65	2.7	3.85	2.1
3.63	5	3.25	4.25	3.13
2.7	3.05	3.65	1.65	1.55
4.55	4.8	3.5	3.95	2.3
4.75	3.4	3.3	4.2	2.85
2.5	4.25	2.25	4.5	2.75
4.5	4.25	3.75	5	2
3.3	1.9	4.05	3.65	3.5
3.65	2.05	2.1	3.4	2.7
4.2	4	3.75	3.7	2.35
2.9	3.75	4.75	3.15	3.35
4.15	3.25	2.8	3.65	1.6
4.25	3	3.5	4.75	1.75
3.75	4	3.75	4.5	2
3.3	2.8	3.5	3.35	4.25
2.75	2.65	4.15	3.5	4.1
3.5	5	4.5	4.5	2.25
4	4.25	3	3.75	2.5
3.55	1.4	4.8	4.45	4.15
3.45	3.55	4	4.25	1.95
2.75	3.25	4.75	3	2.75
4	5	4.25	4.75	1.75
4.25	4	2	3.75	4
4	3	2.5	4	3
3.7	3.7	4.84	3.65	1.95
4.5	3.25	2.75	3	3.5
3.5	3.25	4.75	3.5	1.25
3.2	3.6	4.8	3.85	4.35
4.25	4.75	2.75	3.75	3.75
4.15	4	3.84	3.75	2.6
2.35	2.1	4.8	4.15	3.75
4	2.25	4.5	3.75	2.25
4.55	3.45	3.65	4.2	2.55
3.5	3.75	3	3.75	2.75
3.5	3.5	5	3	1.75
4.13	3.5	4.13	4.5	1.43
3.2	3.3	4.45	4.55	3.2
4	3	4.5	3	4.25
4.3	3.4	2.95	3	1.5
4.42	3.1	2.7	3.4	3.65
4	4.75	3	4	1.75
3.5	2.4	4.6	3.35	3.45
4.6	3.9	3.1	3.25	2
3.6	1.95	4.8	4.2	3.6
3.75	3.5	3	4	2.5
4.83	4.17	4.33	3.17	2.17
2.25	2	4.5	4	4
4.15	2.25	4.65	4.3	3.65
4.25	4.5	3.25	3.5	3
2.45	3.25	4.2	2.5	3.3
4.25	3.75	3.75	4.5	2.25
3.5	4.75	4.25	3.25	2
3.95	4.1	4.15	3.75	2
2.7	2.8	1.95	3.8	2.4
3.25	4.5	4	2.25	4
4.5	3.67	4.75	4.75	2.67
4.75	3.1	3.8	3.94	3
4.25	3.63	2.63	2.25	4.75
4.75	5	4.5	4.25	2.75
3.75	3.1	2.4	2.95	3.75
3.75	3.25	4.5	3.5	2.25
4	1.5	4.8	4.35	3.9
1.6	3.05	3.45	3	2.9
4.17	3	4.2	3.17	2.33
2.25	5	3	3.75	2.75
4.1	3.9	2.9	3.05	2.2
1.75	3.25	3.05	2.4	3.05
3.25	4.25	3	4	1.75
3.05	1.8	4.35	3.35	2.95
2.6	3.9	4.7	4.2	2.05
2.9	2.45	3.9	3.85	3.1
3.38	3.25	2.38	3.38	3.25
3.75	2	3.25	2.75	4.25
3.65	2	4.7	4.25	3.05
2.55	2.65	4.05	4	2.95
3.5	3.75	2.75	3.5	2.5
3	1.85	3.95	4.1	3.7
2.9	3.35	3.95	2.8	3
3.2	1.85	4.25	3.85	3.15
3.25	3.75	2.5	3.17	2.45
4.9	3.9	4.6	4.1	1.6
4.75	3.5	4.5	3.25	1.5
3.85	2.1	4.65	3.7	2.2
4.3	4.25	3.25	3.8	1.95
5	3.75	4	4.5	2.5
3.35	2.35	3.7	2.85	3.2
4.15	3.9	2.55	4.25	1.4
2.15	1.6	4.05	4.6	4.2
2.25	2.75	2.25	3.25	3.5
2.65	1.7	3.15	3.95	3
4.25	4.75	3.25	3.75	1.75
3.45	2.55	2.9	3.15	3.5
3.75	3	3.5	3.25	3.25
4.6	3.05	4.55	2.5	3.75
3.5	3.83	1.33	2.5	2.58
4.5	3.5	2.25	3.25	2.75
3.25	2.1	4.45	3.3	2.65
4.75	4.75	4.5	4.5	1.75
4.5	4.25	4	3.67	2.75
3.4	3.85	3.75	4.5	2.95
3.65	2.7	2.7	3.1	3.25
3	3.15	4.8	2.95	3.55
4.5	4.7	4.6	4.3	1.6
3.7	1.75	4.5	4	3.75
3.5	3.25	4.75	4.5	1.5
2.35	2.85	4.8	3.4	2.55
3.4	2.2	3.47	3.75	3.25
1.75	3.4	4.3	3.2	2.6
3.45	1.5	4.7	2.4	4.55
3.4	2.45	4.45	3.95	3.85
3.95	3.21	3.4	4.45	2.85
4.05	1.35	4.8	3.85	3.5
4.55	2.15	4.9	3.25	3.2
4.5	3	2.5	3.75	3.5
1.9	2.7	4.45	4.1	4.2
3.05	2.2	4	3.95	2.95
4.3	3.2	3.5	4.1	1.89
3.45	4.32	3.84	2.85	3.55
3.95	2.6	4.5	3.85	1.55
2.35	3.05	2.85	3.4	1.45
3.45	1.65	4.65	4.55	3.5
4.35	2.5	3.61	4.2	3.3
4.25	4.25	3.25	4.75	2.25
4.55	3.75	4.95	3.4	1.65
3.35	2.05	4.5	3	3.85
2.4	4.75	3.75	3.2	2.6
3.6	4.05	1.7	1.95	4.7
2.45	2.95	4.6	3.3	3.55
3.5	4.5	2.75	2	3.25
4.85	3	4.05	3.8	2.4
3.4	2.85	3.65	3.8	3.2
3.9	1.7	4.7	4.2	4.6
4.75	5	4.5	2.25	3
3.4	4.45	3.65	2.75	1.63
4.4	4.05	3.68	4.35	2.45
4.7	3.55	4.35	4.75	1.7
3.55	2.9	2.6	2.85	3.6
3.5	3.88	3.13	4.38	1.56
2.85	2.35	3.35	3.35	4.7
3.6	2.55	4.45	3.7	4.8
2.85	3.2	4.7	2.85	4.1
4.25	4.25	4.75	2.75	2.5
2.25	3.45	3.85	2.8	2.7
2.85	3	3	3	2.95
3.4	1.55	3.75	3.35	4.25
2.05	4	3.75	2.2	2.2
2.63	3.25	4.38	4	2.38
3.55	2.25	4	3.9	2.8
3.9	4.5	3.5	3.9	2
4.05	1.75	3.75	4.3	4.05
3.45	4.65	1.9	3.15	4.15
1.95	3.45	3.95	3.05	2.5
2.15	3.1	3.85	3.8	2.8
4.6	3.15	3.3	4.2	1.5
3.65	3.9	2.35	4.25	2.15
4.33	2.5	3.17	4.83	1.5
3.6	2.8	4.05	3.65	3.45
4.35	3.4	3.25	4.05	2.8
3.75	2	4	3.25	3.75
4.15	3.89	3.3	2.3	3.3
2.9	1.85	3.85	4	3.3
3.5	2.55	4.7	4.75	2.9
2.4	3.05	4.1	4.1	3
3.5	4.25	4.25	5	1.75
4.2	3.1	2.8	3.25	3.85
2.2	3.25	4.4	4.15	2.6
1.85	3.55	3.45	3.45	3.4
4.5	4.25	4.25	3.25	2.5
2.75	2.8	4.35	3.25	2.5
4.75	4.5	4.75	2.75	3
3.2	2.9	4.05	3.25	2.7
4.65	4	2.75	2.5	3.25
5	3.5	4.75	3.75	4.25
4	4	3.25	2.25	2.75
2.45	4	4.1	2.85	2.35
3.6	4.1	3.7	4.2	2.5
2.15	2.15	4.6	4.1	2.9
4.05	3.35	4.5	3.8	3.95
1.4	4.05	3.95	3.3	3.4
4	3.5	4.25	3.25	3
